

WorkSpaces {
    "One"   {"#686B9F" "white" "DeepSkyBlue3" "white" "xpm:background8.xpm" }
    "Two"   {"#686B9F" "white" "firebrick" "white"    "xpm:background1.xpm" }
    "Three" {"#727786" "white" "DarkBlue"  "white"    "xpm:background3.xpm" }
    "Four"  {"#8C5b7A" "white" "MidnightBlue" "white"  }
}

Color
{
    BorderColor           "Red"
    DefaultBackground     "blue"
    DefaultForeground     "gray85"
}

# NoDefaults
"r" =	        m4	: all	:!"    cd ; flrun    &  "
"t" =	        m4	: all	:!"   env TZ=Europe/Amsterdam  flclock    &  "
"e" =	        m4	: all	:!"    cd ; rox   &  "
"l" =	        m4	: all	:!"    cd ; fledit   &  "
"x" =	        m4	: all	:!"    xterm -bg black -fg grey -fa 15 &  "
"f" =	        m4	: all	:!"    links -g google.com &  "
"a" =	        m4	: window	: f.fullzoom
"w" =	        m4	: window	: f.delete 
"r" =	        m4	: window	: f.restart 
"1" = m4 : all : f.gotoworkspace "One" 
"2" = m4 : all : f.gotoworkspace "Two"
"3" = m4 : all : f.gotoworkspace "Three" 
"4" = m4 : all : f.gotoworkspace "Four"

Button1 =	: title		        : f.move
Button1 = m	: window		: f.move
Button3 = m	: window		: f.resize

RandomPlacement "on"
RaiseOnClick
ClickToFocus
AutoRelativeResize			# intelligent resizing => easier


Color
{
    BorderColor           "Red"
    DefaultBackground     "blue"
    DefaultForeground     "gray85"
    BorderTileBackground  "DeepSkyBlue1" {
	"xterm"		"DeepSkyBlue3"
    }
    BorderTileForeground  "Black" {
	"xterm" "DeepSkyBlue3"
    }
    TitleBackground       "DeepSkyBlue1" {
	"xterm" "DeepSkyBlue3"
    }
    TitleForeground       "Black" {
	"xterm" "White"
    }
    MenuBackground        "#686B9F"
    MenuForeground        "white"
    MenuTitleBackground   "gray70"
    MenuTitleForeground   "White"
    IconBackground        "LightSlateBlue"
    IconForeground        "White"
    IconBorderColor       "gray85"
    IconManagerBackground "DeepSkyBlue1" {"Axe" "DeepSkyBlue3" "xload" "DeepSkyBlue2"}
    IconManagerForeground "Black"
    MapWindowBackground   "DeepSkyBlue1" {
	"root*" "Red"
	"xterm" "DeepSkyBlue3"
	"Axe"	"Yellow"
    }
    MapWindowForeground   "Black" {
	"xterm" "White"
    }
}

NoOpaqueMove
NoOpaqueResize






